^C:\USERS\ACER - 419082\DOCUMENTS\VISUAL STUDIO 2013\PROJECTS\UDEMY PROJ 1\UDEMY PROJ 1\RELEASE\ANIMATION.OBJ|C:\USERS\ACER - 419082\DOCUMENTS\VISUAL STUDIO 2013\PROJECTS\UDEMY PROJ 1\UDEMY PROJ 1\RELEASE\ANIMATIONSET.OBJ|C:\USERS\ACER - 419082\DOCUMENTS\VISUAL STUDIO 2013\PROJECTS\UDEMY PROJ 1\UDEMY PROJ 1\RELEASE\CLEANUP.OBJ|C:\USERS\ACER - 419082\DOCUMENTS\VISUAL STUDIO 2013\PROJECTS\UDEMY PROJ 1\UDEMY PROJ 1\RELEASE\DATAGROUPTYPE.OBJ|C:\USERS\ACER - 419082\DOCUMENTS\VISUAL STUDIO 2013\PROJECTS\UDEMY PROJ 1\UDEMY PROJ 1\RELEASE\DRAWING_FUNCTIONS.OBJ|C:\USERS\ACER - 419082\DOCUMENTS\VISUAL STUDIO 2013\PROJECTS\UDEMY PROJ 1\UDEMY PROJ 1\RELEASE\ENTITY.OBJ|C:\USERS\ACER - 419082\DOCUMENTS\VISUAL STUDIO 2013\PROJECTS\UDEMY PROJ 1\UDEMY PROJ 1\RELEASE\FRAME.OBJ|C:\USERS\ACER - 419082\DOCUMENTS\VISUAL STUDIO 2013\PROJECTS\UDEMY PROJ 1\UDEMY PROJ 1\RELEASE\GAME.OBJ|C:\USERS\ACER - 419082\DOCUMENTS\VISUAL STUDIO 2013\PROJECTS\UDEMY PROJ 1\UDEMY PROJ 1\RELEASE\GLOB.OBJ|C:\USERS\ACER - 419082\DOCUMENTS\VISUAL STUDIO 2013\PROJECTS\UDEMY PROJ 1\UDEMY PROJ 1\RELEASE\GLOBALS.OBJ|C:\USERS\ACER - 419082\DOCUMENTS\VISUAL STUDIO 2013\PROJECTS\UDEMY PROJ 1\UDEMY PROJ 1\RELEASE\GROB.OBJ|C:\USERS\ACER - 419082\DOCUMENTS\VISUAL STUDIO 2013\PROJECTS\UDEMY PROJ 1\UDEMY PROJ 1\RELEASE\GROUPBUILDER.OBJ|C:\USERS\ACER - 419082\DOCUMENTS\VISUAL STUDIO 2013\PROJECTS\UDEMY PROJ 1\UDEMY PROJ 1\RELEASE\HERO.OBJ|C:\USERS\ACER - 419082\DOCUMENTS\VISUAL STUDIO 2013\PROJECTS\UDEMY PROJ 1\UDEMY PROJ 1\RELEASE\KEYBOARDINPUT.OBJ|C:\USERS\ACER - 419082\DOCUMENTS\VISUAL STUDIO 2013\PROJECTS\UDEMY PROJ 1\UDEMY PROJ 1\RELEASE\LIVINGENTITY.OBJ|C:\USERS\ACER - 419082\DOCUMENTS\VISUAL STUDIO 2013\PROJECTS\UDEMY PROJ 1\UDEMY PROJ 1\RELEASE\MAIN.OBJ|C:\USERS\ACER - 419082\DOCUMENTS\VISUAL STUDIO 2013\PROJECTS\UDEMY PROJ 1\UDEMY PROJ 1\RELEASE\RANDOMNUMBER.OBJ|C:\USERS\ACER - 419082\DOCUMENTS\VISUAL STUDIO 2013\PROJECTS\UDEMY PROJ 1\UDEMY PROJ 1\RELEASE\RES_PATH.OBJ|C:\USERS\ACER - 419082\DOCUMENTS\VISUAL STUDIO 2013\PROJECTS\UDEMY PROJ 1\UDEMY PROJ 1\RELEASE\SOUNDMANAGER.OBJ|C:\USERS\ACER - 419082\DOCUMENTS\VISUAL STUDIO 2013\PROJECTS\UDEMY PROJ 1\UDEMY PROJ 1\RELEASE\TIMECONTROLLER.OBJ|C:\USERS\ACER - 419082\DOCUMENTS\VISUAL STUDIO 2013\PROJECTS\UDEMY PROJ 1\UDEMY PROJ 1\RELEASE\WALL.OBJ
C:\USERS\ACER - 419082\DOCUMENTS\VISUAL STUDIO 2013\PROJECTS\UDEMY PROJ 1\RELEASE\UDEMY PROJ 1.EXE
C:\USERS\ACER - 419082\DOCUMENTS\VISUAL STUDIO 2013\PROJECTS\UDEMY PROJ 1\RELEASE\UDEMY PROJ 1.PDB
